"pattern","absolute_frecuency"
"up_1",1229
"up_2",641
"up_3",335
"up_4",170
"up_5",88
"up_6",41
"up_7",22
"up_8",14
"up_9",8
"up_10",5
"up_11",3
"up_12",2
"up_13",1
"down_1",1024
"down_2",437
"down_3",177
"down_4",69
"down_5",23
"down_6",7
"down_7",1
"unknow_1",1
"unknow_2",1175
"unknow_3",1740
"unknow_4",2012
"unknow_5",2139
"unknow_6",2201
"unknow_7",2225
"unknow_8",2233
"unknow_9",2238
"unknow_10",2240
"unknow_11",2241
"unknow_12",2241
"unknow_13",2241
"unknow_14",2241
"unknow_15",2240
