"pattern","absolute_frecuency"
"up_1",1824
"up_2",909
"up_3",454
"up_4",229
"up_5",116
"up_6",50
"up_7",20
"up_8",7
"up_9",1
"down_1",1552
"down_2",650
"down_3",280
"down_4",119
"down_5",46
"down_6",20
"down_7",8
"down_8",3
"down_9",1
"unknow_1",400
"unknow_2",2216
"unknow_3",3040
"unknow_4",3425
"unknow_5",3610
"unknow_6",3701
"unknow_7",3742
"unknow_8",3759
"unknow_9",3766
"unknow_10",3767
"unknow_11",3766
"unknow_12",3765
"unknow_13",3764
"unknow_14",3763
"unknow_15",3762
